  ____                _         _   _                _ _         
 |  _ \  ___   ___   / \  _   _| |_| |__   ___  _ __(_) |_ _   _ 
 | | | |/ _ \ / __| / _ \| | | | __| '_ \ / _ \| '__| | __| | | |
 | |_| | (_) | (__ / ___ \ |_| | |_| | | | (_) | |  | | |_| |_| |
 |____/ \___/ \___/_/   \_\__,_|\__|_| |_|\___/|_|  |_|\__|\__, |  (TM)
                                                           |___/ 
