{
  "job": {
    "description":"%s",
    "repository_connection":"%s",
    "document_specification": {
      "startpoint": {
        "_value_": "",
        "_attribute_path":"%s",
        "_attribute_converttouri": "false",
        "include": [
          {
            "_value_": "",
            "_attribute_match": "*",
            "_attribute_type": "file"
          },
          {
            "_value_": "",
            "_attribute_match": "*",
            "_attribute_type": "directory"
          }
        ]
      }
    },
    "pipelinestage": [
      {
        "stage_id":"0",
        "stage_isoutput":"false",
        "stage_connectionname":"%s",
        "stage_specification":{
          pair: [
            {
              _value_: "",
              _attribute_parameter: "claJobId",
              _attribute_value: "%s"
            },
            {
              _value_: "",
              _attribute_parameter: "isFileFetcher",
              _attribute_value: "%s"
            }
          ],
          "filterEmpty":{
            "_value_":"",
            "_attribute_value":"true"
          }
        }
      },
      {
        "stage_id": "1",
        "stage_prerequisite":"0",
        "stage_isoutput": "true",
        "stage_connectionname":"%s",
        "stage_description": "pipeline",
        "stage_specification": {
          "rootpath": {
            "_value_": "",
            "_attribute_ROOTPATH": "%s"
          }
        }
      }
    ],
    "start_mode": "manual",
    "run_mode": "scan once",
    "hopcount_mode": "accurate",
    "priority": "5",
    "recrawl_interval": "86400000",
    "expiration_interval": "infinite",
    "reseed_interval": "3600000"
  }
}