  ____                _         _   _                _ _         
 |  _ \  ___   ___   / \  _   _| |_| |__   ___  _ __(_) |_ _   _ 
 | | | |/ _ \ / __| / _ \| | | | __| '_ \ / _ \| '__| | __| | | |
 | |_| | (_) | (__ / ___ \ |_| | |_| | | | (_) | |  | | |_| |_| |
 |____/ \___/ \___/_/   \_\__,_|\__|_| |_|\___/|_|  |_|\__|\__, |  (TM)
                                                           |___/
     _                _ _           _   _               ____
    / \   _ __  _ __ | (_) ___ __ _| |_(_) ___  _ __   / ___|  ___ _ ____   _____ _ __
   / _ \ | '_ \| '_ \| | |/ __/ _` | __| |/ _ \| '_ \  \___ \ / _ \ '__\ \ / / _ \ '__|
  / ___ \| |_) | |_) | | | (_| (_| | |_| | (_) | | | |  ___) |  __/ |   \ V /  __/ |
 /_/   \_\ .__/| .__/|_|_|\___\__,_|\__|_|\___/|_| |_| |____/ \___|_|    \_/ \___|_|
         |_|   |_|