{
  "typeValueSeparator": ";",
  "metadataMatchers": [
    {
      "uniqueId":"bj-security",
      "name":"bj security example",
      "typeMatcher":"bjDocumentSecurityLabel;.*",
      "valueMatcher":"bjDocumentSecurityLabel;(.*)",
      "typeReplacement":"Security",
      "valueReplacement":"$1"
    },
    {
      "uniqueId":"titus-sensitivity",
      "name":"titus sensitivity example",
      "typeMatcher":"TitusCorpSensitivity;.*",
      "valueMatcher":"TitusCorpSensitivity;(.*)",
      "typeReplacement":"Sensitivity",
      "valueReplacement":"$1"
    },
    {
      "uniqueId":"titus-classification",
      "name":"titus classification example",
      "typeMatcher":"TitusCorpClassification;.*",
      "valueMatcher":"TitusCorpClassification;(.*)",
      "typeReplacement":"Classification",
      "valueReplacement":"$1"
    },
    {
      "uniqueId":"mip",
      "name":"mip example, type should match property metadata.mip.type",
      "typeMatcher":"MipIntegration;.*",
      "valueMatcher":"MipIntegration;(.*)",
      "typeReplacement":"Sensitivity",
      "valueReplacement":"$1"
    }
  ]
}