Name,Alternative_Name,Unique_Name,Parent,Description,Risk Information Name,Entity List Name,ID,parentId,Single Value,Assigned Tags
Sales & Marketing,שיווק ומכירות,Sales & Marketing89,,,,,89,,,
Proposals & Contracts,הצעות מחיר ומכתבי התקשרות,Proposals & Contracts90,Sales & Marketing89,,,,90,89,,
Newsletters & Invitations,תיקשור והזמנות,Newsletters & Invitations91,Sales & Marketing89,,,,91,89,,
Customer Satisfaction Surveys,סקרי שביעות רצון,Customer Satisfaction Surveys92,Sales & Marketing89,,,,92,89,,
Tenders,מכרזים,Tenders124,Sales & Marketing89,,,,124,89,,
Operations,תפעול,Operations93,,,,,93,,,
Letters & Faxes,מכתבים ופקסים,Letters & Faxes94,Operations93,,,,94,93,,
Finance & Accounting,חשבות,Finance & Accounting95,,,,,95,,,
Bank Operations and Transfers,פעולות בנקאיות והעברות כספיות,Bank Operations and Transfers96,Finance & Accounting95,,,,96,95,,
Collection,גביה,Collection97,Finance & Accounting95,,,,97,95,,
Budgets & Plans,תקציבים,Budgets & Plans101,Finance & Accounting95,,,,101,95,,
Financial Reports,דיווח כספי,Financial Reports104,Finance & Accounting95,,,,104,95,,
Invoices,חשבוניות,Invoices98,Collection97,,,,98,97,,
Proforma Invoices,חשבונות שכר טרחה,Proforma Invoices99,Collection97,,,,99,97,,
Work Hours Reports,דיווח שעות,Work Hours Reports100,Collection97,,,,100,97,,
Budget to Actual,תקציב לעומת ביצוע,Budget to Actual102,Budgets & Plans101,,,,102,101,,
Budgets,תקציב,Budgets103,Budgets & Plans101,,,,103,101,,
10-k,10-k,10-k105,Financial Reports104,,,,105,104,,
10-q,10-q,10-q106,Financial Reports104,,,,106,104,,
TASE Reports,דיווחים לבורסה,TASE Reports107,Financial Reports104,,,,107,104,,
HR,משאבי אנוש,HR108,,,,,108,,,
Employment,העסקה,Employment109,HR108,,,,109,108,,
Hiring,גיוס והשמה,Hiring115,HR108,,,,115,108,,
Awards Review and Processing,Awards Review and Processing,Awards Review and Processing138,HR108,,,,138,108,,
Benefits,הטבות,Benefits139,HR108,,,,139,108,,
Salary Determination,החלטות שכר,Salary Determination148,HR108,,,,148,108,,
Promotions,קידום,Promotions149,HR108,,,,149,108,,
Reassignments,מעברי תפקיד,Reassignments150,HR108,,,,150,108,,
Policy Development,מדיניות משאבי אנוש,Policy Development151,HR108,,,,151,108,,
"Work Permits, Immigration & Visa","אישורי עבודה, הגירה וויזות",Work Permits Immigration & Visa152,HR108,,,,152,108,,
Position Classification and Grading,דרוג משרות וסיווג,Position Classification and Grading153,HR108,,,,153,108,,
Compensation,תוכניות תיגמול,Compensation154,HR108,,,,154,108,,
Job Analysis,ניתוח תפקידים,Job Analysis155,HR108,,,,155,108,,
Career Planning,ניהול קריירה,Career Planning156,HR108,,,,156,108,,
Labour Relations,יחסי עבודה,Labour Relations157,HR108,,,,157,108,,
Labor Law Compliance,עמידה בחוקי עבודה ותקינה,Labor Law Compliance158,HR108,,,,158,108,,
Employment Agreements,הסכמי העסקה,Employment Agreements110,Employment109,,,,110,109,,
Personnel Action Forms,טפסי העברה ומכתבי פיטורין,Personnel Action Forms111,Employment109,,,,111,109,,
Employee Evaluations,הערכות עובדים,Employee Evaluations112,Employment109,,,,112,109,,
Employment Terms Changes,שינויים בתנאי העסקה,Employment Terms Changes113,Employment109,,,,113,109,,
Recommendation Letters,מכתבי המלצה,Recommendation Letters114,Employment109,,,,114,109,,
Applicant Reports,ראיונות עם מועמדים,Applicant Reports116,Hiring115,,,,116,115,,
Pre-Hire Physical Reports,בדיקות רפואיות,Pre-Hire Physical Reports117,Hiring115,,,,117,115,,
Salary & Payroll,שכר,Salary & Payroll118,,,,,118,,,
Salary lists,רשימות משכורות,Salary lists119,Salary & Payroll118,,,,119,118,,
Legal,מחלקה משפטית,Legal120,,,,,120,,,
Confidentiality Agreements,Confidentiality Agreeme,Confidentiality Agreements136,Legal120,,,,136,120,,
Service Contracts,Service Contra,Service Contracts137,Legal120,,,,137,120,,
Healthcare Insurance,ביטוחי בריאות,Healthcare Insurance140,Benefits139,,,,140,139,,
Life Insurance,ביטוחי חיים ופנסיה,Life Insurance141,Benefits139,,,,141,139,,
Disability Insurance,קופות גמל,Disability Insurance142,Benefits139,,,,142,139,,
Retirement,פרישה,Retirement143,Benefits139,,,,143,139,,
Voluntary Accidental Death and Dismemberment Insurance,ביטוחי רשות,Voluntary Accidental Death and Dismemberment Insurance144,Benefits139,,,,144,139,,
Leave Transfer,Leave Transfer,Leave Transfer145,Benefits139,,,,145,139,,
Training,קורסים והכשרות,Training146,Benefits139,,,,146,139,,
Workers Compensation,תיגמול עובדים,Workers Compensation147,Benefits139,,,,147,139,,
