Name,Series_type,Hidden,Json_filter,From_days,Resolution,Collector_name,Transformation_script,View_configuration
TagTypes DocType collector,file.id,true,"[{'name':'total'},{'name':'dtAny','field':'docTypeId','value':'*','operator':'eq'},{'name':'tt01','field':'tagType','value':1,'operator':'eq'},{'name':'tt02','field':'tagType','value':2,'operator':'eq'},{'name':'tt03','field':'tagType','value':3,'operator':'eq'},{'name':'tt04','field':'tagType','value':4,'operator':'eq'},{'name':'tt05','field':'tagType','value':5,'operator':'eq'},{'name':'tt06','field':'tagType','value':6,'operator':'eq'},{'name':'tt07','field':'tagType','value':7,'operator':'eq'},{'name':'tt08','field':'tagType','value':8,'operator':'eq'},{'name':'tt09','field':'tagType','value':9,'operator':'eq'},{'name':'tt10','field':'tagType','value':10,'operator':'eq'},{'name':'tt11','field':'tagType','value':11,'operator':'eq'},{'name':'tt12','field':'tagType','value':12,'operator':'eq'},{'name':'tt13','field':'tagType','value':13,'operator':'eq'},{'name':'tt14','field':'tagType','value':14,'operator':'eq'},{'name':'tt15','field':'tagType','value':15,'operator':'eq'},{'name':'tt16','field':'tagType','value':16,'operator':'eq'},{'name':'tt17','field':'tagType','value':17,'operator':'eq'},{'name':'tt18','field':'tagType','value':18,'operator':'eq'},{'name':'tt19','field':'tagType','value':19,'operator':'eq'},{'name':'tt20','field':'tagType','value':20,'operator':'eq'}]",7,86400000,,,
Risk Reduction collector,file.id,true,"[{'name':'total'},{'name':'ID', 'field':'docTypeId', 'value':'*', 'operator':'eq'},{'name':'ID_AND_CLASS','logic':'and','filters':[{'field':'docTypeId', 'value':'*', 'operator':'eq'},{'field':'file.tagType','operator':'eq','value':2},{'field':'file.tagType','operator':'eq','value':3}]},{'name':'ID_AND_CLASS_AND_MIT','logic':'and','filters':[{'field':'docTypeId','value':'*','operator':'eq'},{'field':'file.tagType','operator':'eq','value':2},{'field':'file.tagType','operator':'eq','value':3},{'field':'file.tagType','operator':'eq','value':17}]},{'name':'ID_AND_CLASS_AND_MIT_AND_REMED', 'logic':'and','filters':[{'field':'docTypeId', 'value':'*', 'operator':'eq'},{'field':'file.tagType','operator':'eq','value':2},{'field':'file.tagType','operator':'eq','value':3},{'field':'file.tagType','operator':'eq','value':17},{'field':'file.tagType','operator':'eq','value':14},{'field':'file.tagType','operator':'eq','value':15},{'field':'file.tagType','operator':'eq','value':16}]},{'name':'CLASS', 'logic':'and','filters':[{'field':'file.tagType','operator':'eq','value':2},{'field':'file.tagType','operator':'eq','value':3}]},{'name':'CLASS_and_MIT', 'logic':'and','filters':[{'field':'file.tagType','operator':'eq','value':2},{'field':'file.tagType','operator':'eq','value':3},{'field':'file.tagType','operator':'eq','value':17}]},{'name':'CLASS_and_MIT_AND_REMED', 'logic':'and','filters':[{'field':'file.tagType','operator':'eq','value':2},{'field':'file.tagType','operator':'eq','value':3},{'field':'file.tagType','operator':'eq','value':17},{'field':'file.tagType','operator':'eq','value':14},{'field':'file.tagType','operator':'eq','value':15},{'field':'file.tagType','operator':'eq','value':16}]},{'name':'MIT', 'field':'file.tagType','operator':'eq','value':17},{'name':'MIT_and_REMED', 'logic':'and','filters':[{'field':'file.tagType','operator':'eq','value':17},{'field':'file.tagType','operator':'eq','value':14},{'field':'file.tagType','operator':'eq','value':15},{'field':'file.tagType','operator':'eq','value':16}]},{'name':'REMED', 'logic':'and','filters':[{'field':'file.tagType','operator':'eq','value':14},{'field':'file.tagType','operator':'eq','value':15},{'field':'file.tagType','operator':'eq','value':16}]},{'name':'DLP', 'field':'file.tagType','operator':'eq','value':14},{'name':'GOVERNANCE','field':'file.tagType','operator':'eq','value':15},{'name':'ENCRYPTION','field':'file.tagType','operator':'eq','value':16}]",7,86400000,,,
Department Residual Risk collector,file.tags,true,"[{'name':'total','logic':'and','filters':[{'field':'tagType','value':'8','operator':'eq'},{'field':'facetPrefix','value':'8.','operator':'eq'}]},{'name':'dtAny','logic':'and','filters':[{'field':'tagType','value':'8','operator':'eq'},{'field':'facetPrefix','value':'8.','operator':'eq'},{'field':'docTypeId','value':'*','operator':'eq'}]},{'name':'tt02','logic':'and','filters':[{'field':'tagType','value':'8','operator':'eq'},{'field':'facetPrefix','value':'8.','operator':'eq'},{'field':'tagType','value':2,'operator':'eq'}]},{'name':'tt03','logic':'and','filters':[{'field':'tagType','value':'8','operator':'eq'},{'field':'facetPrefix','value':'8.','operator':'eq'},{'field':'tagType','value':3,'operator':'eq'}]},{'name':'tt04','logic':'and','filters':[{'field':'tagType','value':'8','operator':'eq'},{'field':'facetPrefix','value':'8.','operator':'eq'},{'field':'tagType','value':4,'operator':'eq'}]},{'name':'tt13','logic':'and','filters':[{'field':'tagType','value':'8','operator':'eq'},{'field':'facetPrefix','value':'8.','operator':'eq'},{'field':'tagType','value':3,'operator':'eq'}]},{'name':'tt14','logic':'and','filters':[{'field':'tagType','value':'8','operator':'eq'},{'field':'facetPrefix','value':'8.','operator':'eq'},{'field':'tagType','value':3,'operator':'eq'}]},{'name':'tt15','logic':'and','filters':[{'field':'tagType','value':'8','operator':'eq'},{'field':'facetPrefix','value':'8.','operator':'eq'},{'field':'tagType','value':3,'operator':'eq'}]},{'name':'tt16','logic':'and','filters':[{'field':'tagType','value':'8','operator':'eq'},{'field':'facetPrefix','value':'8.','operator':'eq'},{'field':'tagType','value':3,'operator':'eq'}]},{'name':'tt17','logic':'and','filters':[{'field':'tagType','value':'8','operator':'eq'},{'field':'facetPrefix','value':'8.','operator':'eq'},{'field':'tagType','value':3,'operator':'eq'}]}]",7,86400000,,,
Regulation Residual Risk collector,file.tags,true,"[{'name':'total','logic':'and','filters':[{'field':'tagType','value':'4','operator':'eq'},{'field':'facetPrefix','value':'4.','operator':'eq'}]},{'name':'dtAny','logic':'and','filters':[{'field':'tagType','value':'4','operator':'eq'},{'field':'facetPrefix','value':'4.','operator':'eq'},{'field':'docTypeId','value':'*','operator':'eq'}]},{'name':'tt02','logic':'and','filters':[{'field':'tagType','value':'4','operator':'eq'},{'field':'facetPrefix','value':'4.','operator':'eq'},{'field':'tagType','value':2,'operator':'eq'}]},{'name':'tt03','logic':'and','filters':[{'field':'tagType','value':'4','operator':'eq'},{'field':'facetPrefix','value':'4.','operator':'eq'},{'field':'tagType','value':3,'operator':'eq'}]},{'name':'tt04','logic':'and','filters':[{'field':'tagType','value':'4','operator':'eq'},{'field':'facetPrefix','value':'4.','operator':'eq'},{'field':'tagType','value':4,'operator':'eq'}]},{'name':'tt13','logic':'and','filters':[{'field':'tagType','value':'4','operator':'eq'},{'field':'facetPrefix','value':'4.','operator':'eq'},{'field':'tagType','value':3,'operator':'eq'}]},{'name':'tt14','logic':'and','filters':[{'field':'tagType','value':'4','operator':'eq'},{'field':'facetPrefix','value':'4.','operator':'eq'},{'field':'tagType','value':3,'operator':'eq'}]},{'name':'tt15','logic':'and','filters':[{'field':'tagType','value':'4','operator':'eq'},{'field':'facetPrefix','value':'4.','operator':'eq'},{'field':'tagType','value':3,'operator':'eq'}]},{'name':'tt16','logic':'and','filters':[{'field':'tagType','value':'4','operator':'eq'},{'field':'facetPrefix','value':'4.','operator':'eq'},{'field':'tagType','value':3,'operator':'eq'}]},{'name':'tt17','logic':'and','filters':[{'field':'tagType','value':'4','operator':'eq'},{'field':'facetPrefix','value':'4.','operator':'eq'},{'field':'tagType','value':3,'operator':'eq'}]}]",7,86400000,,,
Risk Trend,file.id,true,"[{'name':'total'},{'name':'riskType','field':'tagType', 'value':2, 'operator':'eq'},{'name':'riskLevel','field':'tagType','value':3,'operator':'eq'} ]",7,86400000,,,
Doc Types,file.id,true,"[{'name':'total'},{'name':'With DocType','field':'docTypeId','value':'*','operator':'eq'}]",7,86400000,,,
Risk assignment,file.id,false,,7,86400000,TagTypes DocType collector,output.type = input.tt02; output.level = input.tt03; output.total = input.total;,
DocType Assignment Ratio,file.id,false,,7,86400000,TagTypes DocType collector,output.ratio = Math.round(10000*input.dtAny/(input.total+1))/100; output.total = input.total;,
"Residual Risk [%]",file.id,false,,14,86400000,TagTypes DocType collector,"output.ratio = 100 - Math.min(100,Math.round((10*input.dtAny + 10*input.tt02 + 10*input.tt03 + 10*input.tt04 + 10*input.tt13 + 10*input.tt14 + 10*input.tt15 + 10*input.tt16 + 20*input.tt17) / (input.total+1))) ;",
"Risk Reduction Tasks Status",file.id,false,,14,86400000,Risk Reduction collector,"output.Identification = input.ID - input.ID_AND_CLASS - input.ID_AND_CLASS_AND_MIT - input.ID_AND_CLASS_AND_MIT_AND_REMED; output.Classification = input.CLASS - input.CLASS_and_MIT - input.CLASS_and_MIT_AND_REMED; output.Mitigation = input.MIT - input.MIT_and_REMED; output.Remediation = input.REMED;",
"Remediation Status",file.id,false,,14,86400000,Risk Reduction collector,"output.DLP = input.DLP; output.Governance = input.GOVERNANCE; output.Encryption = input.ENCRYPTION; output.total = input.total; ",
"Residual Risk [%] by Department",file.tags,false,,14,86400000,Department Residual Risk collector,"output.ratios={}; for (dep in input.total) {output.ratios[dep] = 100 - Math.min(100,Math.round((10*(input.dtAny[dep]||0) + 10*(input.tt02[dep]||0) + 10*(input.tt03[dep]||0) + 10*(input.tt04[dep]||0) + 10*(input.tt13[dep]||0) + 10*(input.tt14[dep]||0) + 10*(input.tt15[dep]||0) + 10*(input.tt16[dep]||0) + 20*(input.tt17[dep]||0)) / (input.total[dep]+1)));}",
"Residual Risk [%] by Regulation",file.tags,false,,14,86400000,Regulation Residual Risk collector,"output.ratios={}; for (reg in input.total) {output.ratios[reg] = 100 - Math.min(100,Math.round((10*(input.dtAny[reg]||0) + 10*(input.tt02[reg]||0) + 10*(input.tt03[reg]||0) + 10*(input.tt04[reg]||0) + 10*(input.tt13[reg]||0) + 10*(input.tt14[reg]||0) + 10*(input.tt15[reg]||0) + 10*(input.tt16[reg]||0) + 20*(input.tt17[reg]||0)) / (input.total[reg]+1)));}",
#Risk Reduction collector,file.id,true," 
#[{'name':'total'}
#	,{'name':'ID', 'field':'docTypeId', 'value':'*', 'operator':'eq'}
#	,{'name':'ID_AND_CLASS', 'logic':'and','filters':[{'field':'docTypeId', 'value':'*', 'operator':'eq'},{'field':'file.tagType','operator':'eq','value':2},{'field':'file.tagType','operator':'eq','value':3}]}
#	,{'name':'ID_AND_CLASS_AND_MIT', 'logic':'and','filters':[{'field':'docTypeId', 'value':'*', 'operator':'eq'},{'field':'file.tagType','operator':'eq','value':2},{'field':'file.tagType','operator':'eq','value':3},{'field':'file.tagType','operator':'eq','value':17}]}
#	,{'name':'ID_AND_CLASS_AND_MIT_AND_REMED', 'logic':'and','filters':[{'field':'docTypeId', 'value':'*', 'operator':'eq'},{'field':'file.tagType','operator':'eq','value':2},{'field':'file.tagType','operator':'eq','value':3},{'field':'file.tagType','operator':'eq','value':17},{'field':'file.tagType','operator':'eq','value':14},{'field':'file.tagType','operator':'eq','value':15},{'field':'file.tagType','operator':'eq','value':16}]}
#	,{'name':'CLASS', 'logic':'and','filters':[{'field':'file.tagType','operator':'eq','value':2},{'field':'file.tagType','operator':'eq','value':3}]}
#	,{'name':'CLASS_and_MIT', 'logic':'and','filters':[{'field':'file.tagType','operator':'eq','value':2},{'field':'file.tagType','operator':'eq','value':3},{'field':'file.tagType','operator':'eq','value':17}]}
#	,{'name':'CLASS_and_MIT_AND_REMED', 'logic':'and','filters':[{'field':'file.tagType','operator':'eq','value':2},{'field':'file.tagType','operator':'eq','value':3},{'field':'file.tagType','operator':'eq','value':17},{'field':'file.tagType','operator':'eq','value':14},{'field':'file.tagType','operator':'eq','value':15},{'field':'file.tagType','operator':'eq','value':16}]}
#	,{'name':'MIT', 'field':'file.tagType','operator':'eq','value':17}
#	,{'name':'MIT_and_REMED', 'logic':'and','filters':[{'field':'file.tagType','operator':'eq','value':17},{'field':'file.tagType','operator':'eq','value':14},{'field':'file.tagType','operator':'eq','value':15},{'field':'file.tagType','operator':'eq','value':16}]}
#	,{'name':'REMED', 'logic':'and','filters':[{'field':'file.tagType','operator':'eq','value':14},{'field':'file.tagType','operator':'eq','value':15},{'field':'file.tagType','operator':'eq','value':16}]}
#	,{'name':'DLP', 'field':'file.tagType','operator':'eq','value':14}
#	,{'name':'GOVERNANCE', 'field':'file.tagType','operator':'eq','value':15}
#	,{'name':'ENCRYPTION', 'field':'file.tagType','operator':'eq','value':16}
#	]",7,86400000,,,
#Department Residual Risk collector,file.tags,true,"
#[{'name':'total','logic':'and','filters':[{'field':'tagType','value':'8','operator':'eq'},{'field':'facetPrefix','value':'8.','operator':'eq'}]},
#	{'name':'dtAny','logic':'and','filters':[{'field':'tagType','value':'8','operator':'eq'},{'field':'facetPrefix','value':'8.','operator':'eq'},{'field':'docTypeId','value':'*','operator':'eq'}]},
#	{'name':'tt02','logic':'and','filters':[{'field':'tagType','value':'8','operator':'eq'},{'field':'facetPrefix','value':'8.','operator':'eq'},{'field':'tagType','value':2,'operator':'eq'}]},
#	{'name':'tt03','logic':'and','filters':[{'field':'tagType','value':'8','operator':'eq'},{'field':'facetPrefix','value':'8.','operator':'eq'},{'field':'tagType','value':3,'operator':'eq'}]},
#	{'name':'tt04','logic':'and','filters':[{'field':'tagType','value':'8','operator':'eq'},{'field':'facetPrefix','value':'8.','operator':'eq'},{'field':'tagType','value':4,'operator':'eq'}]},
#	{'name':'tt13','logic':'and','filters':[{'field':'tagType','value':'8','operator':'eq'},{'field':'facetPrefix','value':'8.','operator':'eq'},{'field':'tagType','value':3,'operator':'eq'}]},
#	{'name':'tt14','logic':'and','filters':[{'field':'tagType','value':'8','operator':'eq'},{'field':'facetPrefix','value':'8.','operator':'eq'},{'field':'tagType','value':3,'operator':'eq'}]},
#	{'name':'tt15','logic':'and','filters':[{'field':'tagType','value':'8','operator':'eq'},{'field':'facetPrefix','value':'8.','operator':'eq'},{'field':'tagType','value':3,'operator':'eq'}]},
#	{'name':'tt16','logic':'and','filters':[{'field':'tagType','value':'8','operator':'eq'},{'field':'facetPrefix','value':'8.','operator':'eq'},{'field':'tagType','value':3,'operator':'eq'}]},
#	{'name':'tt17','logic':'and','filters':[{'field':'tagType','value':'8','operator':'eq'},{'field':'facetPrefix','value':'8.','operator':'eq'},{'field':'tagType','value':3,'operator':'eq'}]}
#	]",7,86400000,,,
